{
    "languages": [
        {"name": "Ada", "inventor": "DoD", "year": 1980},
        {"name": "B", "inventor": "Ken Thompson", "year": 1969},
        {"name": "C", "inventor": "Dennis Ritchie", "year": 1972},
        {"name": "C++", "inventor": "Bjarne Stroustrup", "year": 1979},
        {"name": "C#", "inventor": "Anders Hejlsberg", "year": 1979},
        {"name": "Clojure", "inventor": "Rich Hickey", "year": 2007},
        {"name": "COBOL", "inventor": "Grace Hopper", "year": 1950},
        {"name": "Eiffel", "inventor": "Bertrand Meyer", "year": 1986},
        {"name": "Erlang", "inventor": "Joe Armstrong", "year": 1990},
        {"name": "FORTRAN", "inventor": "John Backus", "year": 1957},
        {"name": "Groovy", "inventor": "James Strachan", "year": 2003},
        {"name": "Java", "inventor": "James Gosling", "year": 1994},
        {"name": "JavaScript", "inventor": "Brendan Eich", "year": 1995},
        {"name": "Kotlin", "inventor": "Andrey Breslav", "year": 2011},
        {"name": "LISP", "inventor": "John McCarthy", "year": 1958},
        {"name": "Pascal", "inventor": "Nicolaus Wirth", "year": 1975},
        {"name": "Perl", "inventor": "Larry Wall", "year": 1988},
        {"name": "Python", "inventor": "Guido van Rossum", "year": 1991},
        {"name": "Ruby", "inventor": "Yukihiro Matsumoto", "year": 1995},
        {"name": "Rust", "inventor": "Graydon Hoare", "year": 2010},
        {"name": "Scala", "inventor": "Martin Odersky", "year": 2004},
        {"name": "Simula", "inventor": "Arne Dahl", "year": 1965},
        {"name": "Smalltalk", "inventor": "Alan Kay", "year": 1972},
        {"name": "TypeScript", "inventor": "Anders Hejlsberg", "year": 2015}
    ]
}
